[gd_scene load_steps=4 format=2]

[ext_resource path="res://asset/tileset/city/glb/normal.glb" type="PackedScene" id=1]
[ext_resource path="res://asset/material/tile/crayola.tres" type="Material" id=2]

[sub_resource type="BoxShape" id=1]
extents = Vector3( 3, 1, 3 )

[node name="normal" instance=ExtResource( 1 )]

[node name="normal" parent="." index="0"]
material/0 = ExtResource( 2 )

[node name="tower" type="Area" parent="normal" index="0" groups=[
"area_tower",
]]
collision_layer = 2
collision_mask = 2

[node name="CollisionShape" type="CollisionShape" parent="normal/tower" index="0"]
shape = SubResource( 1 )
