[gd_scene load_steps=5 format=2]

[ext_resource path="res://asset/material/tile/dark.tres" type="Material" id=1]
[ext_resource path="res://asset/tileset/city/glb/start.glb" type="PackedScene" id=2]
[ext_resource path="res://asset/material/tile/crayola.tres" type="Material" id=3]
[ext_resource path="res://asset/material/energy.tres" type="Material" id=4]

[node name="start" instance=ExtResource( 2 )]

[node name="path_start" parent="." index="0"]
material/0 = ExtResource( 3 )
material/1 = ExtResource( 4 )
material/2 = ExtResource( 1 )
material/3 = ExtResource( 1 )
