[gd_resource type="Animation" format=2]

[resource]
resource_name = "move"
length = 10.0
tracks/0/type = "value"
tracks/0/path = NodePath("blob:blend_shapes/Key 1")
tracks/0/interp = 1
tracks/0/loop_wrap = true
tracks/0/imported = true
tracks/0/enabled = true
tracks/0/keys = {
"times": PoolRealArray( 0.0333333, 0.0666667, 0.1, 0.133333, 0.166667, 0.2, 0.233333, 0.266667, 0.3, 0.333333, 0.366667, 0.4, 0.433333, 0.466667, 0.5, 0.533333, 0.566667, 0.6, 0.633333, 0.666667, 0.7, 0.733333, 0.766667, 0.8, 0.833333, 0.866667, 0.9, 0.933333, 0.966667, 1, 1.03333, 1.06667, 1.1, 1.13333, 1.16667, 1.2, 1.23333, 1.26667, 1.3, 1.33333, 1.36667, 1.4, 1.43333, 1.46667, 1.5, 1.53333, 1.56667, 1.6, 1.63333, 1.66667, 1.7, 1.73333, 1.76667, 1.8, 1.83333, 1.86667, 1.9, 1.93333, 1.96667, 2, 2.03333, 2.06667, 2.1, 2.13333, 2.16667, 2.2, 2.23333, 2.26667, 2.3, 2.33333, 2.36667, 2.4, 2.43333, 2.46667, 2.5, 2.53333, 2.56667, 2.6, 2.63333, 2.66667, 2.7, 2.73333, 2.76667, 2.8, 2.83333, 2.86667, 2.9, 2.93333, 2.96667, 3, 3.03333, 3.06667, 3.1, 3.13333, 3.16667, 3.2, 3.23333, 3.26667, 3.3, 3.33333, 3.36667, 3.4, 3.43333, 3.46667, 3.5, 3.53333, 3.56667, 3.6, 3.63333, 3.66667, 3.7, 3.73333, 3.76667, 3.8, 3.83333, 3.86667, 3.9, 3.93333, 3.96667, 4, 4.03333, 4.06667, 4.1, 4.13333, 4.16667, 4.2, 4.23333, 4.26667, 4.3, 4.33333, 4.36667, 4.4, 4.43333, 4.46667, 4.5, 4.53333, 4.56667, 4.6, 4.63333, 4.66667, 4.7, 4.73333, 4.76667, 4.8, 4.83333, 4.86667, 4.9, 4.93333, 4.96667, 5, 5.03333, 5.06667, 5.1, 5.13333, 5.16667, 5.2, 5.23333, 5.26667, 5.3, 5.33333, 5.36667, 5.4, 5.43333, 5.46667, 5.5, 5.53333, 5.56667, 5.6, 5.63333, 5.66667, 5.7, 5.73333, 5.76667, 5.8, 5.83333, 5.86667, 5.9, 5.93333, 5.96667, 6, 6.03333, 6.06667, 6.1, 6.13333, 6.16667, 6.2, 6.23333, 6.26667, 6.3, 6.33333, 6.36667, 6.4, 6.43333, 6.46667, 6.5, 6.53333, 6.56667, 6.6, 6.63333, 6.66667, 6.7, 6.73333, 6.76667, 6.8, 6.83333, 6.86667, 6.9, 6.93333, 6.96667, 7, 7.03333, 7.06667, 7.1, 7.13333, 7.16667, 7.2, 7.23333, 7.26667, 7.3, 7.33333, 7.36667, 7.4, 7.43333, 7.46667, 7.5, 7.53333, 7.56667, 7.6, 7.63333, 7.66667, 7.7, 7.73333, 7.76667, 7.8, 7.83333, 7.86667, 7.9, 7.93333, 7.96667, 8, 8.03333, 8.06667, 8.1, 8.13333, 8.16667, 8.2, 8.23333, 8.26667, 8.3, 8.33333, 8.36667, 8.4, 8.43333, 8.46667, 8.5, 8.53333, 8.56667, 8.6, 8.63333, 8.66667, 8.7, 8.73333, 8.76667, 8.8, 8.83333, 8.86667, 8.9, 8.93333, 8.96667, 9, 9.03333, 9.06667, 9.1, 9.13333, 9.16667, 9.2, 9.23333, 9.26667, 9.3, 9.33333, 9.36667, 9.4, 9.43333, 9.46667, 9.5, 9.53333, 9.56667, 9.6, 9.63333, 9.66667, 9.7, 9.73333, 9.76667, 9.8, 9.83333, 9.86667, 9.9, 9.93333, 9.96667, 10 ),
"transitions": PoolRealArray( 1, 1, 1, 1, 1, 1, 1, 1, 1, 1, 1, 1, 1, 1, 1, 1, 1, 1, 1, 1, 1, 1, 1, 1, 1, 1, 1, 1, 1, 1, 1, 1, 1, 1, 1, 1, 1, 1, 1, 1, 1, 1, 1, 1, 1, 1, 1, 1, 1, 1, 1, 1, 1, 1, 1, 1, 1, 1, 1, 1, 1, 1, 1, 1, 1, 1, 1, 1, 1, 1, 1, 1, 1, 1, 1, 1, 1, 1, 1, 1, 1, 1, 1, 1, 1, 1, 1, 1, 1, 1, 1, 1, 1, 1, 1, 1, 1, 1, 1, 1, 1, 1, 1, 1, 1, 1, 1, 1, 1, 1, 1, 1, 1, 1, 1, 1, 1, 1, 1, 1, 1, 1, 1, 1, 1, 1, 1, 1, 1, 1, 1, 1, 1, 1, 1, 1, 1, 1, 1, 1, 1, 1, 1, 1, 1, 1, 1, 1, 1, 1, 1, 1, 1, 1, 1, 1, 1, 1, 1, 1, 1, 1, 1, 1, 1, 1, 1, 1, 1, 1, 1, 1, 1, 1, 1, 1, 1, 1, 1, 1, 1, 1, 1, 1, 1, 1, 1, 1, 1, 1, 1, 1, 1, 1, 1, 1, 1, 1, 1, 1, 1, 1, 1, 1, 1, 1, 1, 1, 1, 1, 1, 1, 1, 1, 1, 1, 1, 1, 1, 1, 1, 1, 1, 1, 1, 1, 1, 1, 1, 1, 1, 1, 1, 1, 1, 1, 1, 1, 1, 1, 1, 1, 1, 1, 1, 1, 1, 1, 1, 1, 1, 1, 1, 1, 1, 1, 1, 1, 1, 1, 1, 1, 1, 1, 1, 1, 1, 1, 1, 1, 1, 1, 1, 1, 1, 1, 1, 1, 1, 1, 1, 1, 1, 1, 1, 1, 1, 1, 1, 1, 1, 1, 1, 1, 1, 1, 1, 1, 1, 1 ),
"update": 0,
"values": [ 3.75, 3.74635, 3.73561, 3.71809, 3.69411, 3.66398, 3.62801, 3.58651, 3.53978, 3.48813, 3.43186, 3.37129, 3.3067, 3.23841, 3.16671, 3.0919, 3.01428, 2.93414, 2.85179, 2.76752, 2.68163, 2.59441, 2.50616, 2.41717, 2.32774, 2.23816, 2.14873, 2.05974, 1.97149, 1.88427, 1.79837, 1.71411, 1.63175, 1.55162, 1.474, 1.39919, 1.32749, 1.25919, 1.19461, 1.13403, 1.07777, 1.02612, 0.979393, 0.937889, 0.901918, 0.871787, 0.847807, 0.83029, 0.819548, 0.815897, 0.819272, 0.829224, 0.845495, 0.867824, 0.895951, 0.929615, 0.968554, 1.0125, 1.0612, 1.11437, 1.17177, 1.23311, 1.29812, 1.36655, 1.43812, 1.51256, 1.5896, 1.66896, 1.75037, 1.83356, 1.91825, 2.00416, 2.09101, 2.17854, 2.26645, 2.35446, 2.4423, 2.52968, 2.61631, 2.70192, 2.78621, 2.8689, 2.9497, 3.02833, 3.10448, 3.17788, 3.24822, 3.31522, 3.37858, 3.438, 3.49319, 3.54385, 3.58969, 3.63039, 3.66567, 3.69521, 3.71872, 3.73589, 3.74642, 3.75, 3.74635, 3.73561, 3.71809, 3.69411, 3.66398, 3.62801, 3.58651, 3.53978, 3.48813, 3.43186, 3.37129, 3.3067, 3.23841, 3.16671, 3.0919, 3.01428, 2.93414, 2.85179, 2.76752, 2.68163, 2.59441, 2.50616, 2.41717, 2.32774, 2.23816, 2.14873, 2.05974, 1.97149, 1.88427, 1.79837, 1.71411, 1.63175, 1.55162, 1.474, 1.39919, 1.32749, 1.25919, 1.19461, 1.13403, 1.07777, 1.02612, 0.979393, 0.937889, 0.901918, 0.871787, 0.847807, 0.83029, 0.819548, 0.815897, 0.819272, 0.829224, 0.845495, 0.867824, 0.895951, 0.929615, 0.968554, 1.0125, 1.0612, 1.11437, 1.17177, 1.23311, 1.29812, 1.36655, 1.43812, 1.51256, 1.5896, 1.66896, 1.75037, 1.83356, 1.91825, 2.00416, 2.09101, 2.17854, 2.26645, 2.35446, 2.4423, 2.52968, 2.61631, 2.70192, 2.78621, 2.8689, 2.9497, 3.02833, 3.10448, 3.17788, 3.24822, 3.31522, 3.37858, 3.438, 3.49319, 3.54385, 3.58969, 3.63039, 3.66567, 3.69521, 3.71872, 3.73589, 3.74642, 3.75, 3.74635, 3.73561, 3.71809, 3.69411, 3.66398, 3.62801, 3.58651, 3.53978, 3.48813, 3.43186, 3.37129, 3.3067, 3.23841, 3.16671, 3.0919, 3.01428, 2.93414, 2.85179, 2.76752, 2.68163, 2.59441, 2.50616, 2.41717, 2.32774, 2.23816, 2.14873, 2.05974, 1.97149, 1.88427, 1.79837, 1.71411, 1.63175, 1.55162, 1.474, 1.39919, 1.32749, 1.25919, 1.19461, 1.13403, 1.07777, 1.02612, 0.979393, 0.937889, 0.901918, 0.871787, 0.847807, 0.83029, 0.819548, 0.815897, 0.819272, 0.829224, 0.845495, 0.867824, 0.895951, 0.929615, 0.968554, 1.0125, 1.0612, 1.11437, 1.17177, 1.23311, 1.29812, 1.36655, 1.43812, 1.51256, 1.5896, 1.66896, 1.75037, 1.83356, 1.91825, 2.00416, 2.09101, 2.17854, 2.26645, 2.35446, 2.4423, 2.52968, 2.61631, 2.70192, 2.78621, 2.8689, 2.9497, 3.02833, 3.10448, 3.17788, 3.24822, 3.31522, 3.37858, 3.438, 3.49319, 3.54385, 3.58969, 3.63039, 3.66567, 3.69521, 3.71872, 3.73589, 3.74642, 3.75, 3.74635, 3.73561 ]
}
tracks/1/type = "value"
tracks/1/path = NodePath("blob:blend_shapes/Key 2")
tracks/1/interp = 1
tracks/1/loop_wrap = true
tracks/1/imported = true
tracks/1/enabled = true
tracks/1/keys = {
"times": PoolRealArray( 0.0333333, 0.0666667, 0.1, 0.133333, 0.166667, 0.2, 0.233333, 0.266667, 0.3, 0.333333, 0.366667, 0.4, 0.433333, 0.466667, 0.5, 0.533333, 0.566667, 0.6, 0.633333, 0.666667, 0.7, 0.733333, 0.766667, 0.8, 0.833333, 0.866667, 0.9, 0.933333, 0.966667, 1, 1.03333, 1.06667, 1.1, 1.13333, 1.16667, 1.2, 1.23333, 1.26667, 1.3, 1.33333, 1.36667, 1.4, 1.43333, 1.46667, 1.5, 1.53333, 1.56667, 1.6, 1.63333, 1.66667, 1.7, 1.73333, 1.76667, 1.8, 1.83333, 1.86667, 1.9, 1.93333, 1.96667, 2, 2.03333, 2.06667, 2.1, 2.13333, 2.16667, 2.2, 2.23333, 2.26667, 2.3, 2.33333, 2.36667, 2.4, 2.43333, 2.46667, 2.5, 2.53333, 2.56667, 2.6, 2.63333, 2.66667, 2.7, 2.73333, 2.76667, 2.8, 2.83333, 2.86667, 2.9, 2.93333, 2.96667, 3, 3.03333, 3.06667, 3.1, 3.13333, 3.16667, 3.2, 3.23333, 3.26667, 3.3, 3.33333, 3.36667, 3.4, 3.43333, 3.46667, 3.5, 3.53333, 3.56667, 3.6, 3.63333, 3.66667, 3.7, 3.73333, 3.76667, 3.8, 3.83333, 3.86667, 3.9, 3.93333, 3.96667, 4, 4.03333, 4.06667, 4.1, 4.13333, 4.16667, 4.2, 4.23333, 4.26667, 4.3, 4.33333, 4.36667, 4.4, 4.43333, 4.46667, 4.5, 4.53333, 4.56667, 4.6, 4.63333, 4.66667, 4.7, 4.73333, 4.76667, 4.8, 4.83333, 4.86667, 4.9, 4.93333, 4.96667, 5, 5.03333, 5.06667, 5.1, 5.13333, 5.16667, 5.2, 5.23333, 5.26667, 5.3, 5.33333, 5.36667, 5.4, 5.43333, 5.46667, 5.5, 5.53333, 5.56667, 5.6, 5.63333, 5.66667, 5.7, 5.73333, 5.76667, 5.8, 5.83333, 5.86667, 5.9, 5.93333, 5.96667, 6, 6.03333, 6.06667, 6.1, 6.13333, 6.16667, 6.2, 6.23333, 6.26667, 6.3, 6.33333, 6.36667, 6.4, 6.43333, 6.46667, 6.5, 6.53333, 6.56667, 6.6, 6.63333, 6.66667, 6.7, 6.73333, 6.76667, 6.8, 6.83333, 6.86667, 6.9, 6.93333, 6.96667, 7, 7.03333, 7.06667, 7.1, 7.13333, 7.16667, 7.2, 7.23333, 7.26667, 7.3, 7.33333, 7.36667, 7.4, 7.43333, 7.46667, 7.5, 7.53333, 7.56667, 7.6, 7.63333, 7.66667, 7.7, 7.73333, 7.76667, 7.8, 7.83333, 7.86667, 7.9, 7.93333, 7.96667, 8, 8.03333, 8.06667, 8.1, 8.13333, 8.16667, 8.2, 8.23333, 8.26667, 8.3, 8.33333, 8.36667, 8.4, 8.43333, 8.46667, 8.5, 8.53333, 8.56667, 8.6, 8.63333, 8.66667, 8.7, 8.73333, 8.76667, 8.8, 8.83333, 8.86667, 8.9, 8.93333, 8.96667, 9, 9.03333, 9.06667, 9.1, 9.13333, 9.16667, 9.2, 9.23333, 9.26667, 9.3, 9.33333, 9.36667, 9.4, 9.43333, 9.46667, 9.5, 9.53333, 9.56667, 9.6, 9.63333, 9.66667, 9.7, 9.73333, 9.76667, 9.8, 9.83333, 9.86667, 9.9, 9.93333, 9.96667, 10 ),
"transitions": PoolRealArray( 1, 1, 1, 1, 1, 1, 1, 1, 1, 1, 1, 1, 1, 1, 1, 1, 1, 1, 1, 1, 1, 1, 1, 1, 1, 1, 1, 1, 1, 1, 1, 1, 1, 1, 1, 1, 1, 1, 1, 1, 1, 1, 1, 1, 1, 1, 1, 1, 1, 1, 1, 1, 1, 1, 1, 1, 1, 1, 1, 1, 1, 1, 1, 1, 1, 1, 1, 1, 1, 1, 1, 1, 1, 1, 1, 1, 1, 1, 1, 1, 1, 1, 1, 1, 1, 1, 1, 1, 1, 1, 1, 1, 1, 1, 1, 1, 1, 1, 1, 1, 1, 1, 1, 1, 1, 1, 1, 1, 1, 1, 1, 1, 1, 1, 1, 1, 1, 1, 1, 1, 1, 1, 1, 1, 1, 1, 1, 1, 1, 1, 1, 1, 1, 1, 1, 1, 1, 1, 1, 1, 1, 1, 1, 1, 1, 1, 1, 1, 1, 1, 1, 1, 1, 1, 1, 1, 1, 1, 1, 1, 1, 1, 1, 1, 1, 1, 1, 1, 1, 1, 1, 1, 1, 1, 1, 1, 1, 1, 1, 1, 1, 1, 1, 1, 1, 1, 1, 1, 1, 1, 1, 1, 1, 1, 1, 1, 1, 1, 1, 1, 1, 1, 1, 1, 1, 1, 1, 1, 1, 1, 1, 1, 1, 1, 1, 1, 1, 1, 1, 1, 1, 1, 1, 1, 1, 1, 1, 1, 1, 1, 1, 1, 1, 1, 1, 1, 1, 1, 1, 1, 1, 1, 1, 1, 1, 1, 1, 1, 1, 1, 1, 1, 1, 1, 1, 1, 1, 1, 1, 1, 1, 1, 1, 1, 1, 1, 1, 1, 1, 1, 1, 1, 1, 1, 1, 1, 1, 1, 1, 1, 1, 1, 1, 1, 1, 1, 1, 1, 1, 1, 1, 1, 1, 1, 1, 1, 1, 1, 1, 1 ),
"update": 0,
"values": [ 4.65931, 4.63684, 4.57222, 4.46958, 4.33296, 4.16633, 3.97356, 3.7585, 3.52495, 3.27663, 3.01729, 2.75059, 2.48023, 2.20987, 1.94318, 1.68383, 1.43552, 1.20196, 0.986904, 0.794137, 0.627498, 0.49088, 0.388244, 0.323627, 0.301157, 0.320241, 0.37504, 0.462035, 0.577901, 0.719477, 0.883739, 1.06778, 1.26879, 1.48402, 1.71079, 1.94646, 2.1884, 2.43399, 2.6806, 2.92557, 3.1662, 3.3997, 3.62321, 3.83377, 4.02826, 4.20343, 4.35582, 4.48173, 4.5772, 4.63795, 4.65931, 4.63684, 4.57222, 4.46958, 4.33296, 4.16633, 3.97356, 3.7585, 3.52495, 3.27663, 3.01729, 2.75059, 2.48023, 2.20987, 1.94318, 1.68383, 1.43552, 1.20196, 0.986904, 0.794137, 0.627498, 0.49088, 0.388244, 0.323627, 0.301157, 0.320241, 0.37504, 0.462035, 0.577901, 0.719477, 0.883739, 1.06778, 1.26879, 1.48402, 1.71079, 1.94646, 2.1884, 2.43399, 2.6806, 2.92557, 3.1662, 3.3997, 3.62321, 3.83377, 4.02826, 4.20343, 4.35582, 4.48173, 4.5772, 4.63795, 4.65931, 4.63684, 4.57222, 4.46958, 4.33296, 4.16633, 3.97356, 3.7585, 3.52495, 3.27663, 3.01729, 2.75059, 2.48023, 2.20987, 1.94318, 1.68383, 1.43552, 1.20196, 0.986904, 0.794137, 0.627498, 0.49088, 0.388244, 0.323627, 0.301157, 0.320241, 0.37504, 0.462035, 0.577901, 0.719477, 0.883739, 1.06778, 1.26879, 1.48402, 1.71079, 1.94646, 2.1884, 2.43399, 2.6806, 2.92557, 3.1662, 3.3997, 3.62321, 3.83377, 4.02826, 4.20343, 4.35582, 4.48173, 4.5772, 4.63795, 4.65931, 4.63684, 4.57222, 4.46958, 4.33296, 4.16633, 3.97356, 3.7585, 3.52495, 3.27663, 3.01729, 2.75059, 2.48023, 2.20987, 1.94318, 1.68383, 1.43552, 1.20196, 0.986904, 0.794137, 0.627498, 0.49088, 0.388244, 0.323627, 0.301157, 0.320241, 0.37504, 0.462035, 0.577901, 0.719477, 0.883739, 1.06778, 1.26879, 1.48402, 1.71079, 1.94646, 2.1884, 2.43399, 2.6806, 2.92557, 3.1662, 3.3997, 3.62321, 3.83377, 4.02826, 4.20343, 4.35582, 4.48173, 4.5772, 4.63795, 4.65931, 4.63684, 4.57222, 4.46958, 4.33296, 4.16633, 3.97356, 3.7585, 3.52495, 3.27663, 3.01729, 2.75059, 2.48023, 2.20987, 1.94318, 1.68383, 1.43552, 1.20196, 0.986904, 0.794137, 0.627498, 0.49088, 0.388244, 0.323627, 0.301157, 0.320241, 0.37504, 0.462035, 0.577901, 0.719477, 0.883739, 1.06778, 1.26879, 1.48402, 1.71079, 1.94646, 2.1884, 2.43399, 2.6806, 2.92557, 3.1662, 3.3997, 3.62321, 3.83377, 4.02826, 4.20343, 4.35582, 4.48173, 4.5772, 4.63795, 4.65931, 4.63684, 4.57222, 4.46958, 4.33296, 4.16633, 3.97356, 3.7585, 3.52495, 3.27663, 3.01729, 2.75059, 2.48023, 2.20987, 1.94318, 1.68383, 1.43552, 1.20196, 0.986904, 0.794137, 0.627498, 0.49088, 0.388244, 0.323627, 0.301157, 0.320241, 0.37504, 0.462035, 0.577901, 0.719477, 0.883739, 1.06778, 1.26879, 1.48402, 1.71079, 1.94646, 2.1884, 2.43399, 2.6806, 2.92557, 3.1662, 3.3997, 3.62321, 3.83377, 4.02826, 4.20343, 4.35582, 4.48173, 4.5772, 4.63795 ]
}
tracks/2/type = "value"
tracks/2/path = NodePath("blob:blend_shapes/Key 3")
tracks/2/interp = 1
tracks/2/loop_wrap = true
tracks/2/imported = true
tracks/2/enabled = true
tracks/2/keys = {
"times": PoolRealArray( 0.0333333, 0.0666667, 0.1, 0.133333, 0.166667, 0.2, 0.233333, 0.266667, 0.3, 0.333333, 0.366667, 0.4, 0.433333, 0.466667, 0.5, 0.533333, 0.566667, 0.6, 0.633333, 0.666667, 0.7, 0.733333, 0.766667, 0.8, 0.833333, 0.866667, 0.9, 0.933333, 0.966667, 1, 1.03333, 1.06667, 1.1, 1.13333, 1.16667, 1.2, 1.23333, 1.26667, 1.3, 1.33333, 1.36667, 1.4, 1.43333, 1.46667, 1.5, 1.53333, 1.56667, 1.6, 1.63333, 1.66667, 1.7, 1.73333, 1.76667, 1.8, 1.83333, 1.86667, 1.9, 1.93333, 1.96667, 2, 2.03333, 2.06667, 2.1, 2.13333, 2.16667, 2.2, 2.23333, 2.26667, 2.3, 2.33333, 2.36667, 2.4, 2.43333, 2.46667, 2.5, 2.53333, 2.56667, 2.6, 2.63333, 2.66667, 2.7, 2.73333, 2.76667, 2.8, 2.83333, 2.86667, 2.9, 2.93333, 2.96667, 3, 3.03333, 3.06667, 3.1, 3.13333, 3.16667, 3.2, 3.23333, 3.26667, 3.3, 3.33333, 3.36667, 3.4, 3.43333, 3.46667, 3.5, 3.53333, 3.56667, 3.6, 3.63333, 3.66667, 3.7, 3.73333, 3.76667, 3.8, 3.83333, 3.86667, 3.9, 3.93333, 3.96667, 4, 4.03333, 4.06667, 4.1, 4.13333, 4.16667, 4.2, 4.23333, 4.26667, 4.3, 4.33333, 4.36667, 4.4, 4.43333, 4.46667, 4.5, 4.53333, 4.56667, 4.6, 4.63333, 4.66667, 4.7, 4.73333, 4.76667, 4.8, 4.83333, 4.86667, 4.9, 4.93333, 4.96667, 5, 5.03333, 5.06667, 5.1, 5.13333, 5.16667, 5.2, 5.23333, 5.26667, 5.3, 5.33333, 5.36667, 5.4, 5.43333, 5.46667, 5.5, 5.53333, 5.56667, 5.6, 5.63333, 5.66667, 5.7, 5.73333, 5.76667, 5.8, 5.83333, 5.86667, 5.9, 5.93333, 5.96667, 6, 6.03333, 6.06667, 6.1, 6.13333, 6.16667, 6.2, 6.23333, 6.26667, 6.3, 6.33333, 6.36667, 6.4, 6.43333, 6.46667, 6.5, 6.53333, 6.56667, 6.6, 6.63333, 6.66667, 6.7, 6.73333, 6.76667, 6.8, 6.83333, 6.86667, 6.9, 6.93333, 6.96667, 7, 7.03333, 7.06667, 7.1, 7.13333, 7.16667, 7.2, 7.23333, 7.26667, 7.3, 7.33333, 7.36667, 7.4, 7.43333, 7.46667, 7.5, 7.53333, 7.56667, 7.6, 7.63333, 7.66667, 7.7, 7.73333, 7.76667, 7.8, 7.83333, 7.86667, 7.9, 7.93333, 7.96667, 8, 8.03333, 8.06667, 8.1, 8.13333, 8.16667, 8.2, 8.23333, 8.26667, 8.3, 8.33333, 8.36667, 8.4, 8.43333, 8.46667, 8.5, 8.53333, 8.56667, 8.6, 8.63333, 8.66667, 8.7, 8.73333, 8.76667, 8.8, 8.83333, 8.86667, 8.9, 8.93333, 8.96667, 9, 9.03333, 9.06667, 9.1, 9.13333, 9.16667, 9.2, 9.23333, 9.26667, 9.3, 9.33333, 9.36667, 9.4, 9.43333, 9.46667, 9.5, 9.53333, 9.56667, 9.6, 9.63333, 9.66667, 9.7, 9.73333, 9.76667, 9.8, 9.83333, 9.86667, 9.9, 9.93333, 9.96667, 10 ),
"transitions": PoolRealArray( 1, 1, 1, 1, 1, 1, 1, 1, 1, 1, 1, 1, 1, 1, 1, 1, 1, 1, 1, 1, 1, 1, 1, 1, 1, 1, 1, 1, 1, 1, 1, 1, 1, 1, 1, 1, 1, 1, 1, 1, 1, 1, 1, 1, 1, 1, 1, 1, 1, 1, 1, 1, 1, 1, 1, 1, 1, 1, 1, 1, 1, 1, 1, 1, 1, 1, 1, 1, 1, 1, 1, 1, 1, 1, 1, 1, 1, 1, 1, 1, 1, 1, 1, 1, 1, 1, 1, 1, 1, 1, 1, 1, 1, 1, 1, 1, 1, 1, 1, 1, 1, 1, 1, 1, 1, 1, 1, 1, 1, 1, 1, 1, 1, 1, 1, 1, 1, 1, 1, 1, 1, 1, 1, 1, 1, 1, 1, 1, 1, 1, 1, 1, 1, 1, 1, 1, 1, 1, 1, 1, 1, 1, 1, 1, 1, 1, 1, 1, 1, 1, 1, 1, 1, 1, 1, 1, 1, 1, 1, 1, 1, 1, 1, 1, 1, 1, 1, 1, 1, 1, 1, 1, 1, 1, 1, 1, 1, 1, 1, 1, 1, 1, 1, 1, 1, 1, 1, 1, 1, 1, 1, 1, 1, 1, 1, 1, 1, 1, 1, 1, 1, 1, 1, 1, 1, 1, 1, 1, 1, 1, 1, 1, 1, 1, 1, 1, 1, 1, 1, 1, 1, 1, 1, 1, 1, 1, 1, 1, 1, 1, 1, 1, 1, 1, 1, 1, 1, 1, 1, 1, 1, 1, 1, 1, 1, 1, 1, 1, 1, 1, 1, 1, 1, 1, 1, 1, 1, 1, 1, 1, 1, 1, 1, 1, 1, 1, 1, 1, 1, 1, 1, 1, 1, 1, 1, 1, 1, 1, 1, 1, 1, 1, 1, 1, 1, 1, 1, 1, 1, 1, 1, 1, 1, 1, 1, 1, 1, 1, 1, 1 ),
"update": 0,
"values": [ 0.199135, 0.199135, 0.199135, 0.199135, 0.199135, 0.199135, 0.199135, 0.199135, 0.199135, 0.199135, 0.199135, 0.199135, 0.199135, 0.199135, 0.199135, 0.199135, 0.199135, 0.199135, 0.199135, 0.199135, 0.199135, 0.199135, 0.199135, 0.199135, 0.199135, 0.199135, 0.199135, 0.199135, 0.199135, 0.199135, 0.199135, 0.199135, 0.199135, 0.199135, 0.199135, 0.199135, 0.199135, 0.199135, 0.199135, 0.199135, 0.199135, 0.199135, 0.199135, 0.199135, 0.199135, 0.199135, 0.199135, 0.199135, 0.199135, 0.199135, 0.199135, 0.199135, 0.199135, 0.199135, 0.199135, 0.199135, 0.199135, 0.199135, 0.199135, 0.199135, 0.199135, 0.199135, 0.199135, 0.199135, 0.199135, 0.199135, 0.199135, 0.199135, 0.199135, 0.199135, 0.199135, 0.199135, 0.199135, 0.199135, 0.199135, 0.199135, 0.199135, 0.199135, 0.199135, 0.199135, 0.199135, 0.201867, 0.209809, 0.222593, 0.239872, 0.261311, 0.286595, 0.315419, 0.34749, 0.382528, 0.420261, 0.460427, 0.502772, 0.547049, 0.593016, 0.640438, 0.689086, 0.738733, 0.789157, 0.840139, 0.891462, 0.942912, 0.994275, 1.04534, 1.09589, 1.14572, 1.19462, 1.24237, 1.28876, 1.33356, 1.37657, 1.41756, 1.45629, 1.49255, 1.5261, 1.55668, 1.58407, 1.608, 1.62821, 1.64443, 1.65639, 1.66378, 1.66631, 1.66272, 1.65216, 1.63496, 1.61148, 1.5821, 1.54721, 1.50722, 1.46254, 1.41363, 1.36092, 1.30489, 1.246, 1.18474, 1.1216, 1.05707, 0.991646, 0.925825, 0.860106, 0.794982, 0.730944, 0.668477, 0.608056, 0.550148, 0.495209, 0.443683, 0.396, 0.352574, 0.313804, 0.280074, 0.251748, 0.229172, 0.212675, 0.202565, 0.199135, 0.199135, 0.199135, 0.199135, 0.199135, 0.199135, 0.199135, 0.199135, 0.199135, 0.199135, 0.199135, 0.199135, 0.199135, 0.199135, 0.199135, 0.199135, 0.199135, 0.199135, 0.199135, 0.199135, 0.199135, 0.199135, 0.199135, 0.199135, 0.199135, 0.199135, 0.199135, 0.199135, 0.199135, 0.199135, 0.199135, 0.199135, 0.199135, 0.199135, 0.199135, 0.199135, 0.199135, 0.199135, 0.199135, 0.199135, 0.199135, 0.199135, 0.199135, 0.199135, 0.199135, 0.199135, 0.199135, 0.199135, 0.199135, 0.199135, 0.199135, 0.199135, 0.199135, 0.199135, 0.199135, 0.199135, 0.199135, 0.199135, 0.199135, 0.199135, 0.199135, 0.199135, 0.199135, 0.199135, 0.199135, 0.199135, 0.199135, 0.199135, 0.199135, 0.199135, 0.199135, 0.199135, 0.199135, 0.199135, 0.199135, 0.199135, 0.199135, 0.199135, 0.199135, 0.199135, 0.199135, 0.199135, 0.199135, 0.199135, 0.199135, 0.199135, 0.199135, 0.199135, 0.199135, 0.199135, 0.199135, 0.199135, 0.199135, 0.199135, 0.199135, 0.199135, 0.199135, 0.199135, 0.199135, 0.199135, 0.199135, 0.199135, 0.199135, 0.199135, 0.199135, 0.199135, 0.199135, 0.199135, 0.199135, 0.199135, 0.199135, 0.199135, 0.199135, 0.199135, 0.199135, 0.199135, 0.199135, 0.199135, 0.199135, 0.199135, 0.199135, 0.199135, 0.199135, 0.199135, 0.199135, 0.199135, 0.199135, 0.199135, 0.199135, 0.199135, 0.199135, 0.199135, 0.199135, 0.199135, 0.199135, 0.199135, 0.199135, 0.199135, 0.199135, 0.199135, 0.199135, 0.199135, 0.199135, 0.199135 ]
}
tracks/3/type = "value"
tracks/3/path = NodePath("blob:blend_shapes/Key 4")
tracks/3/interp = 1
tracks/3/loop_wrap = true
tracks/3/imported = true
tracks/3/enabled = true
tracks/3/keys = {
"times": PoolRealArray( 0.0333333, 0.0666667, 0.1, 0.133333, 0.166667, 0.2, 0.233333, 0.266667, 0.3, 0.333333, 0.366667, 0.4, 0.433333, 0.466667, 0.5, 0.533333, 0.566667, 0.6, 0.633333, 0.666667, 0.7, 0.733333, 0.766667, 0.8, 0.833333, 0.866667, 0.9, 0.933333, 0.966667, 1, 1.03333, 1.06667, 1.1, 1.13333, 1.16667, 1.2, 1.23333, 1.26667, 1.3, 1.33333, 1.36667, 1.4, 1.43333, 1.46667, 1.5, 1.53333, 1.56667, 1.6, 1.63333, 1.66667, 1.7, 1.73333, 1.76667, 1.8, 1.83333, 1.86667, 1.9, 1.93333, 1.96667, 2, 2.03333, 2.06667, 2.1, 2.13333, 2.16667, 2.2, 2.23333, 2.26667, 2.3, 2.33333, 2.36667, 2.4, 2.43333, 2.46667, 2.5, 2.53333, 2.56667, 2.6, 2.63333, 2.66667, 2.7, 2.73333, 2.76667, 2.8, 2.83333, 2.86667, 2.9, 2.93333, 2.96667, 3, 3.03333, 3.06667, 3.1, 3.13333, 3.16667, 3.2, 3.23333, 3.26667, 3.3, 3.33333, 3.36667, 3.4, 3.43333, 3.46667, 3.5, 3.53333, 3.56667, 3.6, 3.63333, 3.66667, 3.7, 3.73333, 3.76667, 3.8, 3.83333, 3.86667, 3.9, 3.93333, 3.96667, 4, 4.03333, 4.06667, 4.1, 4.13333, 4.16667, 4.2, 4.23333, 4.26667, 4.3, 4.33333, 4.36667, 4.4, 4.43333, 4.46667, 4.5, 4.53333, 4.56667, 4.6, 4.63333, 4.66667, 4.7, 4.73333, 4.76667, 4.8, 4.83333, 4.86667, 4.9, 4.93333, 4.96667, 5, 5.03333, 5.06667, 5.1, 5.13333, 5.16667, 5.2, 5.23333, 5.26667, 5.3, 5.33333, 5.36667, 5.4, 5.43333, 5.46667, 5.5, 5.53333, 5.56667, 5.6, 5.63333, 5.66667, 5.7, 5.73333, 5.76667, 5.8, 5.83333, 5.86667, 5.9, 5.93333, 5.96667, 6, 6.03333, 6.06667, 6.1, 6.13333, 6.16667, 6.2, 6.23333, 6.26667, 6.3, 6.33333, 6.36667, 6.4, 6.43333, 6.46667, 6.5, 6.53333, 6.56667, 6.6, 6.63333, 6.66667, 6.7, 6.73333, 6.76667, 6.8, 6.83333, 6.86667, 6.9, 6.93333, 6.96667, 7, 7.03333, 7.06667, 7.1, 7.13333, 7.16667, 7.2, 7.23333, 7.26667, 7.3, 7.33333, 7.36667, 7.4, 7.43333, 7.46667, 7.5, 7.53333, 7.56667, 7.6, 7.63333, 7.66667, 7.7, 7.73333, 7.76667, 7.8, 7.83333, 7.86667, 7.9, 7.93333, 7.96667, 8, 8.03333, 8.06667, 8.1, 8.13333, 8.16667, 8.2, 8.23333, 8.26667, 8.3, 8.33333, 8.36667, 8.4, 8.43333, 8.46667, 8.5, 8.53333, 8.56667, 8.6, 8.63333, 8.66667, 8.7, 8.73333, 8.76667, 8.8, 8.83333, 8.86667, 8.9, 8.93333, 8.96667, 9, 9.03333, 9.06667, 9.1, 9.13333, 9.16667, 9.2, 9.23333, 9.26667, 9.3, 9.33333, 9.36667, 9.4, 9.43333, 9.46667, 9.5, 9.53333, 9.56667, 9.6, 9.63333, 9.66667, 9.7, 9.73333, 9.76667, 9.8, 9.83333, 9.86667, 9.9, 9.93333, 9.96667, 10 ),
"transitions": PoolRealArray( 1, 1, 1, 1, 1, 1, 1, 1, 1, 1, 1, 1, 1, 1, 1, 1, 1, 1, 1, 1, 1, 1, 1, 1, 1, 1, 1, 1, 1, 1, 1, 1, 1, 1, 1, 1, 1, 1, 1, 1, 1, 1, 1, 1, 1, 1, 1, 1, 1, 1, 1, 1, 1, 1, 1, 1, 1, 1, 1, 1, 1, 1, 1, 1, 1, 1, 1, 1, 1, 1, 1, 1, 1, 1, 1, 1, 1, 1, 1, 1, 1, 1, 1, 1, 1, 1, 1, 1, 1, 1, 1, 1, 1, 1, 1, 1, 1, 1, 1, 1, 1, 1, 1, 1, 1, 1, 1, 1, 1, 1, 1, 1, 1, 1, 1, 1, 1, 1, 1, 1, 1, 1, 1, 1, 1, 1, 1, 1, 1, 1, 1, 1, 1, 1, 1, 1, 1, 1, 1, 1, 1, 1, 1, 1, 1, 1, 1, 1, 1, 1, 1, 1, 1, 1, 1, 1, 1, 1, 1, 1, 1, 1, 1, 1, 1, 1, 1, 1, 1, 1, 1, 1, 1, 1, 1, 1, 1, 1, 1, 1, 1, 1, 1, 1, 1, 1, 1, 1, 1, 1, 1, 1, 1, 1, 1, 1, 1, 1, 1, 1, 1, 1, 1, 1, 1, 1, 1, 1, 1, 1, 1, 1, 1, 1, 1, 1, 1, 1, 1, 1, 1, 1, 1, 1, 1, 1, 1, 1, 1, 1, 1, 1, 1, 1, 1, 1, 1, 1, 1, 1, 1, 1, 1, 1, 1, 1, 1, 1, 1, 1, 1, 1, 1, 1, 1, 1, 1, 1, 1, 1, 1, 1, 1, 1, 1, 1, 1, 1, 1, 1, 1, 1, 1, 1, 1, 1, 1, 1, 1, 1, 1, 1, 1, 1, 1, 1, 1, 1, 1, 1, 1, 1, 1, 1, 1, 1, 1, 1, 1, 1 ),
"update": 0,
"values": [ 1.25, 1.25, 1.25, 1.25, 1.25, 1.25, 1.25, 1.25, 1.25, 1.25, 1.25, 1.25, 1.25, 1.25, 1.25, 1.25, 1.25, 1.25, 1.25, 1.25, 1.25, 1.25, 1.25, 1.25, 1.25, 1.25, 1.25, 1.25, 1.25, 1.25, 1.25, 1.25, 1.25, 1.25, 1.25, 1.25, 1.25, 1.25, 1.25, 1.25, 1.25, 1.25, 1.25, 1.25, 1.25, 1.25, 1.25, 1.25, 1.25, 1.25, 1.25, 1.25, 1.25, 1.25, 1.25, 1.25, 1.25, 1.25, 1.25, 1.25, 1.25, 1.25, 1.25, 1.25, 1.25, 1.25, 1.25, 1.25, 1.25, 1.25, 1.25, 1.25, 1.25, 1.25, 1.25, 1.25, 1.25, 1.25, 1.25, 1.25, 1.25, 1.25, 1.25, 1.25, 1.25, 1.25, 1.25, 1.25, 1.25, 1.25, 1.25, 1.25, 1.25, 1.25, 1.25, 1.25, 1.25, 1.25, 1.25, 1.25, 1.25, 1.25, 1.25, 1.25, 1.25, 1.25, 1.25, 1.25, 1.25, 1.25, 1.25, 1.25, 1.25, 1.25, 1.25, 1.25, 1.25, 1.25, 1.25, 1.25, 1.25, 1.25, 1.25, 1.25, 1.25, 1.25, 1.25, 1.25, 1.25, 1.25, 1.25, 1.25, 1.25, 1.25, 1.25, 1.25, 1.25, 1.25, 1.25, 1.25, 1.25, 1.25, 1.25, 1.25, 1.25, 1.25, 1.25, 1.25, 1.25, 1.25, 1.25288, 1.26135, 1.27522, 1.29424, 1.31821, 1.34689, 1.38007, 1.41752, 1.45901, 1.50432, 1.55322, 1.60548, 1.66088, 1.71919, 1.78017, 1.84359, 1.90923, 1.97685, 2.04622, 2.1171, 2.18926, 2.26246, 2.33646, 2.41104, 2.48594, 2.56093, 2.63577, 2.71022, 2.78404, 2.85698, 2.9288, 2.99926, 3.06811, 3.1351, 3.19999, 3.26253, 3.32246, 3.37955, 3.43353, 3.48416, 3.53119, 3.57435, 3.6134, 3.64809, 3.67814, 3.70332, 3.72335, 3.73798, 3.74695, 3.75, 3.74927, 3.74708, 3.74348, 3.73848, 3.73213, 3.72443, 3.71544, 3.70516, 3.69364, 3.6809, 3.66697, 3.65188, 3.63566, 3.61834, 3.59994, 3.5805, 3.56004, 3.53859, 3.51619, 3.49286, 3.46863, 3.44353, 3.41759, 3.39084, 3.36331, 3.33502, 3.30601, 3.27631, 3.24594, 3.21494, 3.18333, 3.15114, 3.11841, 3.08516, 3.05143, 3.01723, 2.98261, 2.94759, 2.9122, 2.87646, 2.84042, 2.8041, 2.76753, 2.73074, 2.69376, 2.65661, 2.61934, 2.58196, 2.54452, 2.50703, 2.46953, 2.43205, 2.39462, 2.35727, 2.32002, 2.28292, 2.24598, 2.20925, 2.17274, 2.13649, 2.10054, 2.0649, 2.02961, 1.99471, 1.96022, 1.92616, 1.89258, 1.85951, 1.82696, 1.79498, 1.7636, 1.73283, 1.70273, 1.67331, 1.6446, 1.61664, 1.58946, 1.56309, 1.53756, 1.5129, 1.48914, 1.46631, 1.44444, 1.42357, 1.40372, 1.38492, 1.36722, 1.35063, 1.33518, 1.32092, 1.30787, 1.29606, 1.28552, 1.27628, 1.26838, 1.26185, 1.25671, 1.253, 1.25076, 1.25 ]
}
