<?xml version="1.0" encoding="UTF-8" standalone="no"?>
<!-- Created with Inkscape (http://www.inkscape.org/) -->

<svg
   width="60.472443"
   height="60.472443"
   viewBox="0 0 16 16"
   version="1.1"
   id="svg5"
   inkscape:version="1.1 (c68e22c387, 2021-05-23)"
   sodipodi:docname="class_enemy.svg"
   xmlns:inkscape="http://www.inkscape.org/namespaces/inkscape"
   xmlns:sodipodi="http://sodipodi.sourceforge.net/DTD/sodipodi-0.dtd"
   xmlns="http://www.w3.org/2000/svg"
   xmlns:svg="http://www.w3.org/2000/svg">
  <sodipodi:namedview
     id="namedview7"
     pagecolor="#262c3b"
     bordercolor="#666666"
     borderopacity="1.0"
     inkscape:pageshadow="2"
     inkscape:pageopacity="1"
     inkscape:pagecheckerboard="0"
     inkscape:document-units="mm"
     showgrid="false"
     width="16mm"
     units="px"
     inkscape:zoom="2.9738749"
     inkscape:cx="51.279897"
     inkscape:cy="26.396537"
     inkscape:window-width="1280"
     inkscape:window-height="1377"
     inkscape:window-x="1272"
     inkscape:window-y="-8"
     inkscape:window-maximized="0"
     inkscape:current-layer="layer1" />
  <defs
     id="defs2" />
  <g
     inkscape:label="Layer 1"
     inkscape:groupmode="layer"
     id="layer1">
    <circle
       style="fill:none;stroke:#fc9c9c;stroke-width:1.5875;stroke-miterlimit:4;stroke-dasharray:none;stroke-opacity:1;fill-opacity:0"
       id="path31"
       cy="8"
       cx="8"
       r="7" />
    <path
       style="fill:none;stroke:#fc9c9c;stroke-width:1.05833333;stroke-linecap:butt;stroke-linejoin:miter;stroke-miterlimit:4;stroke-dasharray:none;stroke-opacity:1"
       d="M 3.2386916,11.470699 4.7766007,9.0919765 5.3488545,11.398338 6.8223498,9.1908561 7.6866871,11.373633 9.483717,9.0778882 10.754085,11.338905 12.08514,9.4512595 12.58903,11.184815"
       id="path1546" />
    <path
       style="fill:none;stroke:#fc9c9c;stroke-width:1.32291667;stroke-linecap:butt;stroke-linejoin:miter;stroke-miterlimit:4;stroke-dasharray:none;stroke-opacity:1"
       d="M 3.8933835,5.2517795 6.8270066,6.331741"
       id="path1663" />
    <path
       style="fill:none;stroke:#fc9c9c;stroke-width:1.32291667;stroke-linecap:butt;stroke-linejoin:miter;stroke-miterlimit:4;stroke-dasharray:none;stroke-opacity:1"
       d="M 9.0525141,6.3722407 11.890246,5.2624235"
       id="path1665" />
  </g>
</svg>
