<?xml version="1.0" encoding="UTF-8" standalone="no"?>
<!-- Created with Inkscape (http://www.inkscape.org/) -->

<svg
   width="60.472443"
   height="60.472443"
   viewBox="0 0 16 16"
   version="1.1"
   id="svg5"
   inkscape:version="1.1 (c68e22c387, 2021-05-23)"
   sodipodi:docname="class_spawner.svg"
   xmlns:inkscape="http://www.inkscape.org/namespaces/inkscape"
   xmlns:sodipodi="http://sodipodi.sourceforge.net/DTD/sodipodi-0.dtd"
   xmlns="http://www.w3.org/2000/svg"
   xmlns:svg="http://www.w3.org/2000/svg">
  <sodipodi:namedview
     id="namedview7"
     pagecolor="#262c3b"
     bordercolor="#666666"
     borderopacity="1.0"
     inkscape:pageshadow="2"
     inkscape:pageopacity="1"
     inkscape:pagecheckerboard="0"
     inkscape:document-units="mm"
     showgrid="false"
     width="16mm"
     units="px"
     inkscape:zoom="7.1308556"
     inkscape:cx="-1.0517672"
     inkscape:cy="19.983577"
     inkscape:window-width="2560"
     inkscape:window-height="1377"
     inkscape:window-x="-8"
     inkscape:window-y="-8"
     inkscape:window-maximized="1"
     inkscape:current-layer="g5246" />
  <defs
     id="defs2" />
  <g
     inkscape:label="Layer 1"
     inkscape:groupmode="layer"
     id="layer1">
    <g
       id="g5246"
       style="fill-rule:evenodd;stroke:none;stroke-linejoin:round">
      <path
         id="path13573"
         style="fill:#e0e0e0;fill-rule:evenodd;stroke:none;stroke-width:12.8967;stroke-linejoin:round;fill-opacity:1"
         d="M 33.382812 1.7167969 L 1.8300781 8.1953125 L 1.8300781 36.488281 L 31 58.542969 L 58.878906 33.363281 L 58.878906 9.1035156 L 33.382812 1.7167969 z M 32.535156 3.5058594 L 51.466797 9.4667969 L 31.412109 17.669922 L 10.798828 8.8339844 L 32.535156 3.5058594 z M 5.125 14.074219 L 26.580078 24.181641 L 26.580078 50.597656 L 4.8378906 32.289062 L 5.125 14.074219 z M 56.263672 14.208984 L 56.550781 32.423828 L 34.806641 50.732422 L 34.806641 24.318359 L 56.263672 14.208984 z "
         transform="scale(0.26458333)" />
    </g>
  </g>
</svg>
