<?xml version="1.0" encoding="UTF-8" standalone="no"?>
<!-- Created with Inkscape (http://www.inkscape.org/) -->

<svg
   width="512"
   height="512"
   viewBox="0 0 135.46666 135.46667"
   version="1.1"
   id="svg20852"
   sodipodi:docname="logo.svg"
   inkscape:version="1.1 (c68e22c387, 2021-05-23)"
   inkscape:export-filename="/tmp/logo.png"
   inkscape:export-xdpi="96"
   inkscape:export-ydpi="96"
   xmlns:inkscape="http://www.inkscape.org/namespaces/inkscape"
   xmlns:sodipodi="http://sodipodi.sourceforge.net/DTD/sodipodi-0.dtd"
   xmlns="http://www.w3.org/2000/svg"
   xmlns:svg="http://www.w3.org/2000/svg">
  <sodipodi:namedview
     id="namedview20854"
     pagecolor="#ffffff"
     bordercolor="#666666"
     borderopacity="1.0"
     inkscape:pageshadow="2"
     inkscape:pageopacity="0"
     inkscape:pagecheckerboard="0"
     inkscape:document-units="mm"
     showgrid="false"
     units="mm"
     width="512px"
     showguides="false"
     inkscape:snap-nodes="true"
     inkscape:snap-global="true"
     inkscape:zoom="0.67473062"
     inkscape:cx="117.08376"
     inkscape:cy="155.61766"
     inkscape:window-width="1150"
     inkscape:window-height="1043"
     inkscape:window-x="0"
     inkscape:window-y="18"
     inkscape:window-maximized="1"
     inkscape:current-layer="layer1" />
  <defs
     id="defs20849" />
  <g
     inkscape:label="Layer 1"
     inkscape:groupmode="layer"
     id="layer1">
    <g
       id="g11975"
       transform="matrix(1.1337015,0,0,1.1337015,-9.0873912,-9.0586842)">
      <path
         style="fill:#21191d;stroke:none;stroke-width:0.23338px;stroke-linecap:butt;stroke-linejoin:miter;stroke-opacity:1;fill-opacity:0.98431373"
         d="m 25.045638,36.899122 4.811528,8.432267 -0.355951,44.570378 -4.685457,8.765837 -14.389154,-16.383288 v -27.68048 z"
         id="path31593" />
      <path
         style="fill:#21191d;fill-opacity:0.984314;stroke:none;stroke-width:0.23338px;stroke-linecap:butt;stroke-linejoin:miter;stroke-opacity:1"
         d="m 98.142153,111.0564 -16.540934,13.70136 h -27.68048 l -17.374553,-14.28835 8.444141,-4.78876 44.838415,0.36453 z"
         id="path29721"
         sodipodi:nodetypes="ccccccc" />
      <path
         style="fill:#211a1e;stroke:none;stroke-width:0.23338px;stroke-linecap:butt;stroke-linejoin:miter;stroke-opacity:1;fill-opacity:1"
         d="m 110.95301,37.492902 13.83007,16.402516 v 27.68048 l -14.31749,17.322579 -4.90057,-8.351557 0.41048,-44.764176 z"
         id="path26796" />
      <path
         style="fill:#211a1e;stroke:none;stroke-width:0.23338px;stroke-linecap:butt;stroke-linejoin:miter;stroke-opacity:1;fill-opacity:1"
         d="M 37.189006,24.706267 53.3689,10.393534 h 27.680482 l 17.777993,14.70148 -7.981647,4.703477 -45.14997,-0.167955 -8.506752,-4.924269"
         id="path23711" />
      <path
         id="path23503"
         style="fill:#e9fff9;fill-opacity:0.98431373;stroke:none;stroke-width:4.24194;stroke-linejoin:bevel;stroke-miterlimit:4;stroke-dasharray:none;stroke-opacity:1"
         d="m 37.189005,24.706267 -12.143367,12.192855 4.811528,8.432266 -4.917605,11.046658 -9.011612,2.25403 -0.336876,17.170338 9.212954,2.63327 4.697188,11.466082 -4.685457,8.765837 11.730428,11.801807 8.44414,-4.78876 11.310955,4.97599 2.246879,8.99638 17.524025,-0.0395 2.721753,-9.09388 11.034802,-4.47446 8.313412,5.01122 12.323438,-12.157923 -4.90057,-8.351557 4.98745,-11.296735 9.07252,-2.220049 0.24529,-17.296834 -9.39414,-2.632897 -4.50064,-11.317662 4.97751,-8.289841 -12.125636,-12.397888 -7.981646,4.703477 -11.669798,-4.572073 -2.260507,-9.266261 -17.178792,-0.266043 -2.7551,9.408702 -11.285774,4.52772 z M 58.948127,46.643575 A 22.90255,22.90255 0 0 1 88.903634,58.960608 22.90255,22.90255 0 0 1 76.586599,88.916114 22.90255,22.90255 0 0 1 46.631093,76.599082 22.90255,22.90255 0 0 1 58.948127,46.643575 Z" />
      <path
         id="path11148"
         style="fill:#ff7f11;fill-opacity:0.984314;stroke:none;stroke-width:11.337;stroke-linejoin:bevel;stroke-miterlimit:4;stroke-dasharray:none;stroke-opacity:1"
         d="M 224.9082 118.28906 L 182.4082 135.86523 L 185.59766 161.61523 L 162.09961 183.80078 L 137.55273 180.08594 L 119.05078 222.08984 L 139.06445 238.06641 L 138.84961 271.18164 L 118.27148 287.98047 L 135.05859 329.16211 L 160.81445 326.04102 L 183.5918 349.95508 L 179.875 374.45703 L 223.13867 392.39453 L 239.21094 372.76562 L 271.0332 373.08594 L 286.38086 394.00195 L 329.28906 376.69727 L 325.79688 351.05469 L 349.72461 328.32422 L 374.38672 332.18555 L 392.79297 289.77539 L 372.33203 273.61328 L 372.87891 241.06641 L 393.6875 225.74219 L 376.53906 182.68359 L 352.01172 186.07031 L 327.93359 162.7832 L 331.89453 137.60156 L 289.79688 119.26562 L 273.31836 139.63672 L 240.82227 139.18945 L 224.9082 118.28906 z M 256 194.79102 A 61.209327 61.209327 0 0 1 317.20898 256 A 61.209327 61.209327 0 0 1 256 317.20898 A 61.209327 61.209327 0 0 1 194.79102 256 A 61.209327 61.209327 0 0 1 256 194.79102 z "
         transform="matrix(0.23338007,0,0,0.23338007,8.0156824,7.990361)" />
    </g>
  </g>
</svg>
